Mayker Elizondo-b12337-Lab1
…
storms_xyz_feature1 = st_read("C:/Users/User/Documents/Mayker/Maestria Profesional/Estadistica Espacial/SP1649-1120-NI/storms_xyz_feature1.shp")

3-¿Cuántas características contiene este conjunto de datos?

Destaca por ser un archivo con figuras tipo “Lenetring”, el bbox es de xmin:-102.2, ymin:8.3, xmax:0 ymax:59. Además posee una variable adicional llmada Z

storms_xyz_feature

## Simple feature collection with 71 features and 1 field
## geometry type:  LINESTRING
## dimension:      XYZ
## bbox:           xmin: -102.2 ymin: 8.3 xmax: 0 ymax: 59.5
## z_range:        zmin: 924 zmax: 1017
## CRS:            NA
## # A tibble: 71 x 2
##    Track                                                                geometry
##    <chr>                                                            <LINESTRING>
##  1 TONY    Z (-50.8 20.1 1011, -51.2 20.4 1011, -51.5 20.8 1010, -51.7 21.3 100~
##  2 SANDY   Z (-77.4 14.3 1006, -77.8 13.9 1005, -78.2 13.5 1003, -78.6 13.1 100~
##  3 RAFAEL  Z (-62.7 14.7 1006, -63.2 15 1007, -63.7 15.3 1006, -63.8 15.6 1006,~
##  4 PATTY   Z (-72.5 25.5 1012, -72.4 25.4 1010, -72.2 25.4 1009, -72.2 25.5 100~
##  5 OSCAR   Z (-38 12.4 1008, -38.7 13.6 1008, -39.6 15 1007, -40.5 16.3 1006, -~
##  6 NADINE  Z (-38 15.5 1008, -39.4 15.6 1007, -40.8 15.8 1007, -41.9 16 1007, -~
##  7 MICHAEL Z (-36.7 28.9 1015, -37.9 28.1 1015, -39.2 27.2 1015, -40.1 26.4 101~
##  8 LESLIE  Z (-27.4 12.9 1010, -29.6 13 1010, -31.7 13.1 1009, -33.7 13.2 1009,~
##  9 KIRK    Z (-43.4 23.9 1007, -44.5 24 1004, -45.5 24.3 1003, -46.3 24.6 1001,~
## 10 JOYCE   Z (-31.7 10.7 1011, -33.1 11.1 1011, -34.5 11.5 1011, -35.8 12.1 100~
## # ... with 61 more rows
…
